{
  "type": "minecraft:crafting_shaped",
  "pattern": [
    "#  ",
    "## ",
    "###"
  ],
  "key": {
    "#": {
      "item": "moolands:moo_rock_bricks"
    }
  },
  "result": {
    "item": "moolands:moo_rock_brick_stairs",
    "count": 4
  }
}