{
    "parent": "block/outer_stairs",
    "textures": {
        "bottom": "moolands:block/mooland_stone",
        "top": "moolands:block/mooland_stone",
        "side": "moolands:block/mooland_stone"
    }
}
