{
    "textures": {
        "texture": "moolands:block/yellow_mushroom_block",
        "particle": "moolands:block/yellow_mushroom_block"
    },
    "elements": [
        {   "from": [ 0, 0, 0 ],
            "to": [ 16, 16, 0 ],
            "faces": {
                "north": { "texture": "#texture", "cullface":"north" }
            }
        }
    ]
}
